@startuml CrossingModelAPI

'- De quoi récupérer les signaux des 4 capteurs en scrutation OU avec des 'évènements
'- De quoi piloter les signaux (ON / OFF) et récupérer leur état
'- De quoi piloter les barrières (OUVERT / FERME) et récupérer leur état

package CrossingModelAPI {
    !include ./Light.pu
    !include ./CrossingModel.pu
    !include ./SensorEventType.pu
    !include ./RailwayBarrierState.pu
    !include ./RailwayCrossing.pu
    !include ./SensorType.pu
    !include ./SensorPosition.pu
    !include ./DigitalSensor.pu

    DigitalSensor --* CrossingModel
    RailwayCrossing "1" --* CrossingModel
    Light --* CrossingModel

    SensorEventType -- DigitalSensor
    SensorPosition --* "1" DigitalSensor
    SensorType --* "1" DigitalSensor
    RailwayBarrierState --* "1" RailwayCrossing
}

@enduml
