@startuml RailwayCrossing

class RailwayCrossing {
    -GPIO
    -state: RailwayBarrierState
    -eventListeners: Callback[][]
    -DigitalSensor openLimitSwitch;
    -DigitalSensor closedLimitSwitch;
    +init(Output, Output, Output, Input, Input) : RailwayCrossing
    +addEventListener(RailwayBarrierState, Callback) : EventListener
    +removeEventListener(EventListener) : ErrorCode
    +getBarrierState() : RailwayBarrierState
    +toggleBarrierState([boolean]) : ErrorCode
    +update()
}

@enduml