@startuml
package  sleeper_counter{
    class sensor<<boundary>> <<active>> {
        + sensor_callback(void*) : void
    }

    class counter{
        + counter_value : uint_16
        + counter_init() : counter_t*
        + counter_increment(counter_t*) : void
        + counter_get(counter_t*) : uint_16
        + counter_free(counter_t*) : void
    }
    class socket <<active>> {
        + socket_init() : *socket_t
        + socket_read(*socket_t) : char*
        + socket_send(*socket_t,char*) : void
        * socket_free(*socket_t) : void
    }
    class sc_main {
        + sc_main_init() : *sc_main_t
        + sc_main_dispatch(*sc_main,char*) : void
        + sc_main_send_counter(*sc_main_t) : void
        + sc_main_free(*sc_main_t): void
    }
}

sensor --> counter
counter --> sc_main
sc_main --> socket
socket --> sc_main

@enduml