<svg width="580" height="399.9999999999999" xmlns="http://www.w3.org/2000/svg">
 <!-- Created with Method Draw - http://github.com/duopixel/Method-Draw/ -->

 <g>
  <title>background</title>
  <rect fill="#fff" id="canvas_background" height="135.349801" width="195.357212" y="-1" x="-1"/>
  <g display="none" id="canvasGrid">
   <rect fill="url(#gridpattern)" stroke-width="0" y="0" x="0" height="100%" width="100%" id="svg_22"/>
  </g>
 </g>
 <g>
  <title>Layer 1</title>
  <text xml:space="preserve" text-anchor="start" font-family="Helvetica, Arial, sans-serif" font-size="24" id="svg_1" y="52.251615" x="63.252489" stroke-width="0" stroke="#000" fill="#000000">VCC</text>
  <line stroke-linecap="undefined" stroke-linejoin="undefined" id="svg_2" y2="59.751533" x2="112.751947" y1="59.751533" x1="66.252456" stroke-width="1.5" stroke="#000" fill="none"/>
  <line stroke-linecap="undefined" stroke-linejoin="undefined" id="svg_3" y2="59.251538" x2="89.752199" y1="99.751095" x1="89.752199" fill-opacity="null" stroke-opacity="null" stroke-width="1.5" stroke="#000" fill="none"/>
  <line stroke="#000" stroke-linecap="undefined" stroke-linejoin="undefined" id="svg_4" y2="99.751095" x2="276.435406" y1="99.751095" x1="88.918915" fill-opacity="null" stroke-opacity="null" stroke-width="1.5" fill="none"/>
  <line stroke="#000" stroke-linecap="undefined" stroke-linejoin="undefined" id="svg_6" y2="266.881404" x2="159.329398" y1="184.995429" x1="159.329398" fill-opacity="null" stroke-opacity="null" stroke-width="1.5" fill="none"/>
  <line stroke-linecap="undefined" stroke-linejoin="undefined" id="svg_7" y2="129.217612" x2="186.328732" y1="98.664225" x1="186.328732" fill-opacity="null" stroke-opacity="null" stroke-width="1.5" stroke="#000" fill="none"/>
  <text stroke="#000" transform="matrix(0.48922979831695557,0,0,0.48922979831695557,93.12777317874134,78.99380400404334) " xml:space="preserve" text-anchor="start" font-family="Helvetica, Arial, sans-serif" font-size="24" id="svg_9" y="149.662966" x="176.878221" fill-opacity="null" stroke-opacity="null" stroke-width="0" fill="#000000">R1</text>
  <line stroke="#000" stroke-linecap="undefined" stroke-linejoin="undefined" id="svg_11" y2="303.549769" x2="186.328732" y1="168.329155" x1="186.328732" fill-opacity="null" stroke-opacity="null" stroke-width="1.5" fill="none"/>
  <rect id="svg_8" height="45.665539" width="45.665539" y="198.995081" x="147.996346" stroke-opacity="null" stroke-width="1.5" stroke="#000" fill="#ffffff"/>
  <text xml:space="preserve" text-anchor="start" font-family="Helvetica, Arial, sans-serif" font-size="24" id="svg_10" y="229.66099" x="156.329473" fill-opacity="null" stroke-opacity="null" stroke-width="0" stroke="#000" fill="#000000">PT</text>
  <line stroke="#000" stroke-linecap="null" stroke-linejoin="null" id="svg_12" y2="185.328752" x2="126.996864" y1="185.328752" x1="160.329407" stroke-opacity="null" stroke-width="1.5" fill="none"/>
  <line stroke="#000" stroke-linecap="null" stroke-linejoin="null" id="svg_13" y2="185.028228" x2="127.830196" y1="304.993163" x1="127.830196" stroke-opacity="null" stroke-width="1.5" fill="none"/>
  <line stroke-linecap="null" stroke-linejoin="null" id="svg_14" y2="304.166681" x2="185.361546" y1="304.166681" x1="127.833329" fill-opacity="null" stroke-opacity="null" stroke-width="1.5" fill="none" stroke="#000"/>
  <line stroke="#000" stroke-linecap="undefined" stroke-linejoin="undefined" id="svg_19" y2="266.17864" x2="279.179492" y1="266.17864" x1="158.673814" fill-opacity="null" stroke-opacity="null" stroke-width="1.5" fill="none"/>
  <rect stroke="#000" id="svg_20" height="38.332387" width="20.999481" y="129.66346" x="176.328979" fill-opacity="null" stroke-opacity="null" stroke-width="1.5" fill="none"/>
  <line stroke-linecap="null" stroke-linejoin="null" id="svg_21" y2="181.508144" x2="322.517247" y1="181.508144" x1="186.341749" fill-opacity="null" stroke-opacity="null" stroke-width="1.5" fill="none" stroke="#000"/>
  <rect transform="rotate(90 230.49734497070312,181.66445922851565) " stroke="#000" id="svg_5" height="38.332387" width="20.999481" y="162.498271" x="219.997613" stroke-opacity="null" stroke-width="1.5" fill="#ffffff"/>
  <text stroke="#000" transform="matrix(0.5326670408248901,0,0,0.5326670408248901,105.4639051463455,89.02692872285843) " xml:space="preserve" text-anchor="start" font-family="Helvetica, Arial, sans-serif" font-size="24" id="svg_23" y="181.586806" x="218.792922" fill-opacity="null" stroke-opacity="null" stroke-width="0" fill="#000000">R2</text>
  <line stroke="#000" stroke-linecap="null" stroke-linejoin="null" id="svg_25" y2="266.845341" x2="279.179241" y1="181.841512" x1="278.679218" stroke-opacity="null" stroke-width="1.5" fill="none"/>
  <text xml:space="preserve" text-anchor="start" font-family="Helvetica, Arial, sans-serif" font-size="24" id="svg_26" y="193.340946" x="443.534035" fill-opacity="null" stroke-opacity="null" stroke-width="0" stroke="#000" fill="#000000">Vs</text>
  <line stroke="#000" stroke-linecap="null" stroke-linejoin="null" id="svg_27" y2="199.591351" x2="423.441389" y1="174.256876" x1="423.441389" fill-opacity="null" stroke-opacity="null" stroke-width="1.5" fill="none"/>
  <line stroke="#000" stroke-linecap="null" stroke-linejoin="null" id="svg_29" y2="187.116049" x2="440.583569" y1="199.424678" x1="423.274715" fill-opacity="null" stroke-opacity="null" stroke-width="1.5" fill="none"/>
  <line stroke="#000" stroke-linecap="null" stroke-linejoin="null" id="svg_30" y2="187.257463" x2="441.275525" y1="174.756901" x1="423.441389" fill-opacity="null" stroke-opacity="null" stroke-width="1.5" fill="none"/>
  <text stroke="#000" transform="matrix(0.48311480879783625,0,0,0.48311480879783625,37.45021386444568,47.02909736335277) " xml:space="preserve" text-anchor="start" font-family="Helvetica, Arial, sans-serif" font-size="24" id="svg_31" y="90.337387" x="120.505428" fill-opacity="null" stroke-opacity="null" stroke-width="0" fill="#000000">3V</text>
  <line fill="none" stroke-width="1.5" stroke-opacity="null" fill-opacity="null" x1="323.249865" y1="166.499936" x2="323.249865" y2="206.499922" id="svg_24" stroke-linejoin="null" stroke-linecap="null" stroke="#000"/>
  <line fill="none" stroke="#000" stroke-width="1.5" stroke-opacity="null" fill-opacity="null" x1="352.499854" y1="186.499929" x2="322.999865" y2="206.749921" id="svg_28" stroke-linejoin="null" stroke-linecap="null"/>
  <line fill="none" stroke="#000" stroke-width="1.5" stroke-opacity="null" fill-opacity="null" x1="322.499866" y1="166.999936" x2="351.999854" y2="186.999929" id="svg_32" stroke-linejoin="null" stroke-linecap="null"/>
  <text fill="#000000" stroke="#000" stroke-width="0" stroke-opacity="null" fill-opacity="null" x="326.666411" y="184.49993" id="svg_33" font-size="10" font-family="Helvetica, Arial, sans-serif" text-anchor="start" xml:space="preserve">-</text>
  <line fill="none" stroke="#000" stroke-width="1.5" stroke-opacity="null" fill-opacity="null" x1="322.999865" y1="196.083468" x2="311.99987" y2="196.083468" id="svg_34" stroke-linejoin="null" stroke-linecap="null"/>
  <line stroke="#000" fill="none" stroke-width="1.5" stroke-opacity="null" fill-opacity="null" x1="335.74986" y1="175.999936" x2="335.74986" y2="163.581413" id="svg_35" stroke-linejoin="null" stroke-linecap="null"/>
  <line fill="none" stroke-width="1.5" stroke-opacity="null" fill-opacity="null" x1="336.24986" y1="198.249925" x2="336.24986" y2="215.499918" id="svg_36" stroke-linejoin="null" stroke-linecap="null" stroke="#000"/>
  <g id="svg_44">
   <line stroke="#000" stroke-linecap="null" stroke-linejoin="null" id="svg_40" y2="162.38514" x2="275.469226" y1="154.593565" x1="275.469226" fill-opacity="null" stroke-opacity="null" stroke-width="1.5" fill="none"/>
   <line stroke-linecap="null" stroke-linejoin="null" id="svg_41" y2="162.760232" x2="287.304923" y1="162.760232" x1="263.802559" fill-opacity="null" stroke-opacity="null" stroke-width="1.5" stroke="#000" fill="none"/>
   <line stroke-linecap="null" stroke-linejoin="null" id="svg_42" y2="168.593565" x2="283.323513" y1="168.593565" x1="267.656847" fill-opacity="null" stroke-opacity="null" stroke-width="1.5" stroke="#000" fill="none"/>
   <line stroke="#000" stroke-linecap="null" stroke-linejoin="null" id="svg_43" y2="173.989465" x2="279.079991" y1="173.989465" x1="272.239994" fill-opacity="null" stroke-opacity="null" stroke-width="1.5" fill="none"/>
  </g>
  <g id="svg_49">
   <line stroke="#000" stroke-linecap="null" stroke-linejoin="null" id="svg_45" y2="312.458324" x2="154.319705" y1="304.666749" x1="154.319705" fill-opacity="null" stroke-opacity="null" stroke-width="1.5" fill="none"/>
   <line stroke-linecap="null" stroke-linejoin="null" id="svg_46" y2="312.833416" x2="166.155402" y1="312.833416" x1="142.653038" fill-opacity="null" stroke-opacity="null" stroke-width="1.5" stroke="#000" fill="none"/>
   <line stroke-linecap="null" stroke-linejoin="null" id="svg_47" y2="318.666749" x2="162.173992" y1="318.666749" x1="146.507326" fill-opacity="null" stroke-opacity="null" stroke-width="1.5" stroke="#000" fill="none"/>
   <line stroke="#000" stroke-linecap="null" stroke-linejoin="null" id="svg_48" y2="324.062649" x2="157.93047" y1="324.062649" x1="151.090473" fill-opacity="null" stroke-opacity="null" stroke-width="1.5" fill="none"/>
  </g>
  <text xml:space="preserve" text-anchor="start" font-family="Helvetica, Arial, sans-serif" font-size="10" id="svg_15" y="198.297649" x="325.608054" fill-opacity="null" stroke-opacity="null" stroke-width="0" stroke="#000" fill="#000000">+</text>
  <line stroke="#000" stroke-linecap="null" stroke-linejoin="null" id="svg_16" y2="196.973274" x2="311.943846" y1="129.310065" x1="311.943846" fill-opacity="null" stroke-opacity="null" stroke-width="1.5" fill="none"/>
  <rect stroke="#000" id="svg_17" height="19.829767" width="12.66439" y="105.814293" x="269.284856" fill-opacity="null" stroke-opacity="null" stroke-width="1.5" fill="none"/>
  <rect stroke="#000" id="svg_18" height="19.329855" width="12.831025" y="134.97571" x="269.118219" fill-opacity="null" stroke-opacity="null" stroke-width="1.5" fill="none"/>
  <line stroke="#000" stroke-linecap="null" stroke-linejoin="null" id="svg_37" y2="105.980927" x2="275.783686" y1="99.81537" x1="275.783686" fill-opacity="null" stroke-opacity="null" stroke-width="1.5" fill="none"/>
  <line stroke-linecap="null" stroke-linejoin="null" id="svg_38" y2="134.975711" x2="275.61705" y1="125.97733" x1="275.61705" fill-opacity="null" stroke-opacity="null" stroke-width="1.5" stroke="#000" fill="none"/>
  <g id="svg_53">
   <line stroke="#000" stroke-linecap="null" stroke-linejoin="null" id="svg_39" y2="219.041611" x2="336.291613" y1="211.250036" x1="336.291613" fill-opacity="null" stroke-opacity="null" stroke-width="1.5" fill="none"/>
   <line stroke-linecap="null" stroke-linejoin="null" id="svg_50" y2="219.416703" x2="348.12731" y1="219.416703" x1="324.624946" fill-opacity="null" stroke-opacity="null" stroke-width="1.5" stroke="#000" fill="none"/>
   <line stroke-linecap="null" stroke-linejoin="null" id="svg_51" y2="225.250036" x2="344.1459" y1="225.250036" x1="328.479234" fill-opacity="null" stroke-opacity="null" stroke-width="1.5" stroke="#000" fill="none"/>
   <line stroke="#000" stroke-linecap="null" stroke-linejoin="null" id="svg_52" y2="230.645936" x2="339.902378" y1="230.645936" x1="333.062381" fill-opacity="null" stroke-opacity="null" stroke-width="1.5" fill="none"/>
  </g>
  <line stroke-linecap="null" stroke-linejoin="null" id="svg_54" y2="129.97661" x2="311.614044" y1="129.97661" x1="275.61705" fill-opacity="null" stroke-opacity="null" stroke-width="1.5" stroke="#000" fill="none"/>
  <text xml:space="preserve" text-anchor="start" font-family="Helvetica, Arial, sans-serif" font-size="6" id="svg_56" y="117.312223" x="271.951043" fill-opacity="null" stroke-opacity="null" stroke-width="0" stroke="#000" fill="#000000">R3</text>
  <text xml:space="preserve" text-anchor="start" font-family="Helvetica, Arial, sans-serif" font-size="6" id="svg_57" y="147.473462" x="271.451132" fill-opacity="null" stroke-opacity="null" stroke-width="0" stroke="#000" fill="#000000">R4</text>
  <text xml:space="preserve" text-anchor="start" font-family="Helvetica, Arial, sans-serif" font-size="6" id="svg_58" y="126.47724" x="300.945825" fill-opacity="null" stroke-opacity="null" stroke-width="0" stroke="#000" fill="#000000">Vref</text>
  <line stroke-linecap="null" stroke-linejoin="null" id="svg_59" y2="162.970673" x2="346.440305" y1="162.970673" x1="325.608054" fill-opacity="null" stroke-opacity="null" stroke-width="1.5" stroke="#000" fill="none"/>
  <text xml:space="preserve" text-anchor="start" font-family="Helvetica, Arial, sans-serif" font-size="6" id="svg_60" y="159.13803" x="329.27406" fill-opacity="null" stroke-opacity="null" stroke-width="0" stroke="#000" fill="#000000">Vsat</text>
  <line stroke-linecap="null" stroke-linejoin="null" id="svg_61" y2="187.132992" x2="423.590612" y1="187.132992" x1="350.770192" fill-opacity="null" stroke-opacity="null" stroke-width="1.5" stroke="#000" fill="none"/>
 </g>
</svg>