@startuml

class Terminal {
    - JPanel : consolePanel
	- JTextArea : commandTA
	- JScrollPane : jsp
    - void createControls()
    - void createTextArea()
    + String getText()
    + void addObserver(Observer o)
    + void removeObserver(Observer o)
    + void notifyObserver()
}

class ConsoleLogger {
    - Terminal term
    + ConsoleLogger(LogFrame, FileLogger)
}
class LogFrame {
    - JTextArea TextArea
    + void writeText()
    + void removeLast()
}

class FileLogger {
    - Terminal term
    - File logFile
    + FileLogger()
    + appendText(String texte)

}


interface ObserverESEO {
    + void setSubject(subject)
    + Object getSubject()
}
interface Logger {
    + void writeText()
    
}
abstract class LoggerFactory <<singleton>> {
    - static LoggerFactory instance
    + static LoggerFactory getInstance() 
    + abstract Logger creerLogger(Class)
    + abstract ConsoleLogger creerConsoleLogger()
    + abstract FileLogger creerFileLogger()
}
class LoggerFactoryImpl {

}

LoggerFactoryImpl -up-|> LoggerFactory
ConsoleLogger -up-|> Logger
FileLogger -up-|> Logger
ConsoleLogger "1" *-- LogFrame
Logger "0..1" *-up-  Terminal
Terminal "0..*" *-down-  Logger
Logger -left-|> ObserverESEO




@enduml