@startuml
node "Locomotive" {
  node E_BackLamp
  node E_FrontLamp
  node E_Motor
  node PowerBoard
  node LinuxBoard
  node CommandBoard
  [OS]
  [API_Loco]
}
node E_Railway
node E_Coupler
node E_Detector

  LinuxBoard -- [OS]
  LinuxBoard -- [API_Loco]

  PowerBoard -- E_Railway
  PowerBoard -- CommandBoard
  PowerBoard -- LinuxBoard

  CommandBoard -- LinuxBoard
  CommandBoard -- E_BackLamp
  CommandBoard -- E_FrontLamp
  CommandBoard -- E_Motor

 
  CommandBoard -- E_Coupler
  CommandBoard -- E_Detector
@enduml