@startuml
class  pollAlarm <<ALARM>> {
    COUNTER = SystemCounter;
    ACTION = ACTIVATETASK{
      TASK = pollTask;
    };
    AUTOSTART = TRUE{
        APPMODE = std;
        ALARMTIME = 10;
        CYCLETIME = 10;
    };
}
class pollTask <<TASK>> {
    PRIORITY = 1;
    AUTOSTART = FALSE;
    ACTIVATION = 1;
    SCHEDULE = FULL;
    MESSAGE = polledValueMessageSend; 
}
class polledValueMessageSend <<MESSAGE>> {
    MESSAGEPROPERTY = SEND_STATIC_INTERNAL {
        CDATATYPE = "uint16";
    };
}
class polledValueMessageRec <<MESSAGE>> {
    MESSAGEPROPERTY = RECEIVE_QUEUED_INTERNAL {
        SENDINGMESSAGE = polledValueMessageSend;
        FILTER = NEWISDIFFERENT;
        QUEUESIZE = 4;
    };
    NOTIFICATION = ACTIVATETASK {
        TASK = counterTask;
    };
}


class sleeperCounterTask <<TASK>> {
    PRIORITY = 1;
    AUTOSTART = FALSE;
    ACTIVATION = 1;
    SCHEDULE = FULL;
    MESSAGE = polledValueMessageRec;
}
class sleeperCountRes <<RESOURCE>> {
    RESOURCEPROPERTY = STANDARD;
}
class displayTask <<TASK>> {
    PRIORITY = 1;
    ACTIVATION = 1;
    SCHEDULE = FULL;
    AUTOSTART = TRUE{
      APPMODE = std;
    };
    EVENT = sleeperCountEvent;
    EVENT = polledValueDisplayEvent;
    RESOURCE = sleeperCountRes;
}

class sleeperCountMessageEvent <<EVENT>> {
    MASK = AUTO;
}
class buttonISR <<ISR>> {
    CATEGORY = 2;
    PRIORITY = 1;
    SOURCE = EXTI0_IRQ {
      PIN = PA0;
    };
}
class polledValueDisplayMessageSend <<MESSAGE>> {
    MESSAGEPROPERTY = SEND_STATIC_INTERNAL {
        CDATATYPE = "uint16";
    };
}

class polledValueDisplayMessageRec <<MESSAGE>> {
    MESSAGEPROPERTY = RECEIVE_QUEUED_INTERNAL {
    SENDINGMESSAGE = polledValueDisplayMessageSend;
        FILTER = NEWISDIFFERENT;
        QUEUESIZE = 4;
    };
    NOTIFICATION = SETEVENT {
        TASK = displayTask;
        EVENT = polledValueDisplayEvent;
    };
}

class polledValueDisplayEvent <<EVENT>>{
        MASK = AUTO;

}


hide circles
pollAlarm -right-> pollTask : 10ms / ActivateTask
pollTask --> polledValueMessageSend
polledValueMessageSend --> polledValueMessageRec
polledValueMessageRec -left-> sleeperCounterTask 
sleeperCountRes <-- sleeperCounterTask  
sleeperCountRes --> displayTask
sleeperCounterTask --> sleeperCountMessageEvent
sleeperCountMessageEvent --> displayTask
sleeperCountRes <-- buttonISR  
buttonISR --> sleeperCountMessageEvent

pollTask --> polledValueDisplayMessageSend
polledValueDisplayMessageSend --> polledValueDisplayMessageRec
polledValueDisplayMessageRec --> polledValueDisplayEvent
polledValueDisplayEvent --> displayTask


@enduml