@startuml

interface GPIO
node stm32
node LCD
node captation_device
component localisation_software
stm32 -right-> LCD
stm32 -up-> localisation_software
captation_device -right-> GPIO
GPIO -right-> stm32

@enduml